
1
4
8
1.1
0.01
0.01
1e-6
2000
1


In time of test mode, many tests are assumed to be passed. Each of these tests have the following data"

######1st number#####
run number
######2nd number#####
NX
######3rd number#####
NY
######4th number#####
Tau
######5th number#####
U_max
######6th number#####
u_max2
######7th number#####
dens_max
######8th number#####
WriteIter
######9th number#####
eachstep_interval
